<?xml version="1.0" encoding="UTF-8"?>
<svg width="150px" height="34px" viewBox="0 0 150 34" version="1.1" xmlns="http://www.w3.org/2000/svg" xmlns:xlink="http://www.w3.org/1999/xlink" xmlns:sketch="http://www.bohemiancoding.com/sketch/ns">
    <!-- Generator: Sketch 3.3.3 (12072) - http://www.bohemiancoding.com/sketch -->
    <title>eclipse-source</title>
    <desc>Created with Sketch.</desc>
    <defs></defs>
    <g id="Page-1" stroke="none" stroke-width="1" fill="none" fill-rule="evenodd" sketch:type="MSPage">
        <g id="eclipse-source" sketch:type="MSLayerGroup">
            <path d="M25.5,0.4 L3,0.4 C1.8,0.4 0.8,1.4 0.8,2.6 C2.6,2.6 4.3,2.9 5.8,3.4 C10.6,5 14.1,8.5 16.3,11.9 C18.8,15.7 22.4,18.3 27.7,18.3 L27.7,2.6 C27.7,1.4 26.7,0.4 25.5,0.4" id="Shape" fill="#6EACDD" sketch:type="MSShapeGroup"></path>
            <path d="M22.7,24.3 C17.6,22.6 14,18.4 12.1,13.5 C8,3 0.8,3.3 0.8,3.3 L0.8,25.1 C0.8,26.3 1.8,27.3 3,27.3 L22.6,27.3 L25.4,27.3 C26.6,27.3 27.6,26.3 27.6,25.1 C25.9,25.1 24.2,24.8 22.7,24.3" id="Shape" fill="#025596" sketch:type="MSShapeGroup"></path>
            <path d="M47.6,27.2 C43.8,27.2 43.6,23.3 43.6,18 C43.6,11.2 44.3,8.4 47.6,8.4 C50.7,8.4 51.3,10.7 51.3,13.7 L51.3,14 L49.5,14 L49.5,13.7 C49.5,11.3 49.2,9.7 47.6,9.7 C45.8,9.7 45.4,11.6 45.4,17.9 C45.4,23 45.6,25.6 47.5,25.6 C49,25.6 49.4,24.2 49.4,21.6 L49.4,21.3 L51.3,21.3 L51.3,21.7 C51.4,24.6 50.9,27.2 47.6,27.2" id="Shape" fill="#6EACDD" sketch:type="MSShapeGroup"></path>
            <path d="M58.6,3.4 L58.6,1.2 L60.4,1.2 L60.4,3.4 L58.6,3.4 Z M58.6,8.8 L60.4,8.8 L60.4,26.9 L58.6,26.9 L58.6,8.8 L58.6,8.8 Z" id="Shape" fill="#6EACDD" sketch:type="MSShapeGroup"></path>
            <path d="M77.6,27.2 C74.2,27.2 73.6,24.9 73.6,22.2 L73.6,21.6 L75.5,21.6 L75.5,22.2 C75.5,24.4 75.9,25.8 77.7,25.8 C79.1,25.8 79.7,24.8 79.7,22.9 C79.7,21.3 79.1,20.5 78.1,19.4 L76.2,17.5 C74.8,16.1 73.8,14.7 73.8,12.6 C73.8,10.3 75.1,8.5 77.7,8.5 C80.8,8.5 81.5,10.5 81.5,13.4 L81.5,13.8 L79.6,13.8 L79.6,13.3 C79.6,11.6 79.5,9.9 77.7,9.9 C76.2,9.9 75.7,11 75.7,12.6 C75.7,14.2 76.6,15.2 77.7,16.4 L79.5,18.3 C81.2,20 81.7,21 81.7,23 C81.6,25.5 80.3,27.2 77.6,27.2" id="Shape" fill="#6EACDD" sketch:type="MSShapeGroup"></path>
            <path d="M85.4,18.4 L85.4,19.6 C85.4,23.3 85.6,25.9 87.6,25.9 C89.4,25.9 89.7,24 89.7,21.9 L91.6,21.9 C91.5,24.4 91,27.3 87.6,27.3 C83.6,27.3 83.5,23.1 83.5,18.1 C83.5,12.5 83.6,8.5 87.6,8.5 C91.8,8.5 91.7,12.4 91.7,18.4 L85.4,18.4 M87.7,9.9 C85.5,9.9 85.5,13.2 85.5,17 L89.9,17 C89.9,13.2 89.9,9.9 87.7,9.9" id="Shape" fill="#6EACDD" sketch:type="MSShapeGroup"></path>
            <path d="M98.4,27.3 C94.2,27.3 93.7,24.4 93.7,20.7 L93.7,20.1 L95.7,20.1 L95.7,20.6 C95.7,23.4 95.8,25.7 98.4,25.7 C100.5,25.7 101,24 101,21.8 C101,20.1 100.3,18.4 99.3,16.7 L95.2,9.8 C94.5,8.6 93.9,6.9 93.9,5.6 C93.9,2.7 95.2,0.4 98.4,0.4 C102.3,0.4 102.9,3.5 102.9,6.8 L102.9,7.2 L101,7.2 L101,7 C101,4.1 100.7,2.1 98.4,2.1 C96.7,2.1 95.9,3.4 95.9,5.7 C95.9,6.8 96.4,8.1 97.4,9.7 L101.2,16 C102.3,17.9 103.1,19.8 103.1,22 C102.9,25 101.9,27.3 98.4,27.3" id="Shape" fill="#025596" sketch:type="MSShapeGroup"></path>
            <path d="M108.7,27.2 C104.7,27.2 104.6,23.1 104.6,18.1 C104.6,12.3 104.7,8.4 108.7,8.4 C112.7,8.4 112.8,12.1 112.8,18.1 C112.8,23 112.8,27.2 108.7,27.2 M108.7,9.9 C106.5,9.9 106.5,12.8 106.5,18.2 C106.5,23.1 106.6,25.9 108.7,25.9 C110.9,25.9 110.9,23.1 110.9,18.2 C110.9,12.7 110.9,9.9 108.7,9.9" id="Shape" fill="#025596" sketch:type="MSShapeGroup"></path>
            <path d="M121.1,26.9 L121,25.2 C120.5,26.3 119.7,27.2 118.2,27.2 C115.9,27.2 115.3,25.5 115.3,23.5 L115.3,8.8 L117.1,8.8 L117.1,23 C117.1,24.5 117.4,25.7 118.9,25.7 C120.1,25.7 120.9,24.6 120.9,22.5 L120.9,8.8 L122.7,8.8 L122.7,23.3 C122.7,24.4 122.7,25.3 122.8,26.9 L121.1,26.9" id="Shape" fill="#025596" sketch:type="MSShapeGroup"></path>
            <path d="M130,10.3 C128.1,10.3 127.6,11.5 127.6,14 L127.6,26.9 L125.8,26.9 L125.8,12.4 C125.8,12 125.8,10.3 125.7,8.7 L127.5,8.7 L127.6,10.5 C128.1,9.3 129,8.5 130,8.5 C130.4,8.5 130.8,8.6 131.2,8.8 L130.7,10.4 C130.4,10.3 130.1,10.3 130,10.3" id="Shape" fill="#025596" sketch:type="MSShapeGroup"></path>
            <g id="Group" transform="translate(131.000000, 8.000000)" fill="#025596" sketch:type="MSShapeGroup">
                <path d="M4.6,19.2 C0.8,19.2 0.6,15.3 0.6,10 C0.6,3.2 1.3,0.4 4.6,0.4 C7.7,0.4 8.3,2.7 8.3,5.7 L8.3,6 L6.5,6 L6.5,5.7 C6.5,3.3 6.2,1.7 4.6,1.7 C2.8,1.7 2.4,3.6 2.4,9.9 C2.4,15 2.6,17.6 4.5,17.6 C6,17.6 6.4,16.2 6.4,13.6 L6.4,13.3 L8.3,13.3 L8.3,13.7 C8.4,16.6 7.9,19.2 4.6,19.2" id="Shape"></path>
                <path d="M11.9,10.4 L11.9,11.6 C11.9,15.3 12.1,17.9 14.1,17.9 C15.9,17.9 16.2,16 16.2,13.9 L18.1,13.9 C18,16.4 17.5,19.3 14.1,19.3 C10.1,19.3 10,15.1 10,10.1 C10,4.5 10.1,0.5 14.1,0.5 C18.3,0.5 18.2,4.4 18.2,10.4 L11.9,10.4 M14.2,1.9 C12,1.9 12,5.2 12,9 L16.4,9 C16.4,5.2 16.4,1.9 14.2,1.9" id="Shape"></path>
            </g>
            <path d="M33.8,25.7 C33.8,26.5 34.2,26.9 35,26.9 L42.6,26.9 L42.6,25.2 L36.3,25.2 C36,25.2 35.8,25 35.8,24.7 L35.8,14.2 L41.8,14.2 L41.8,12.5 L35.8,12.5 L35.8,3.1 C35.8,2.8 36,2.6 36.3,2.6 L42.9,2.6 L42.9,0.9 L35.1,0.9 C34.3,0.9 33.9,1.3 33.9,2.1 L33.9,25.7" id="Shape" fill="#6EACDD" sketch:type="MSShapeGroup"></path>
            <path d="M67.8,27.1 C66.5,27.1 65.5,26.4 65.1,25.2 L65.1,33.6 L63.3,33.6 L63.3,11.8 C63.3,11.5 63.2,9.1 63.2,8.8 L65,8.8 L65,10.6 C65.5,9.3 66.4,8.6 67.8,8.6 C70.9,8.6 71.5,11.1 71.5,17.9 C71.5,24 71,27.1 67.8,27.1 M67.3,9.9 C65.2,9.9 65.1,12.8 65.1,16.4 L65.1,18.6 C65.1,22.9 65.2,25.8 67.4,25.8 C69.6,25.8 69.6,23.1 69.6,17.8 C69.6,12.6 69.5,9.9 67.3,9.9" id="Shape" fill="#6EACDD" sketch:type="MSShapeGroup"></path>
            <rect id="Rectangle-path" fill="#6EACDD" sketch:type="MSShapeGroup" x="54.1" y="0.9" width="1.8" height="26"></rect>
        </g>
    </g>
</svg>